<?xml version="1.0" encoding="utf-8"?>
<!-- Generator: Adobe Illustrator 22.1.0, SVG Export Plug-In . SVG Version: 6.00 Build 0)  -->
<svg version="1.1" id="Capa_1" xmlns="http://www.w3.org/2000/svg" xmlns:xlink="http://www.w3.org/1999/xlink" x="0px" y="0px"
	 viewBox="0 0 500 500" style="enable-background:new 0 0 500 500;" xml:space="preserve">
<g id="logo">
	<path class="st0" d="M319.5,83.7c4.2-1.6,8.9-0.6,12.8,1.2c0.7,5.1,0.2,10.3,0.4,15.5c0.2,11.8,3,23.5,8.7,33.8
		c5.1,9.8,13.3,17.4,21.7,24.4c3.4,2.8,7.1,5.5,11.4,6.8c5.7,1,11.4-0.3,17.1-0.9c10.9-1.4,22-0.8,32.6,2
		c-6.6,2.5-13.4,4.6-20.1,7.1c-8.1,3-16.9,2.2-25,5c-13.8,4.8-27.3,11.9-42.1,12.4c-8.3,0.5-15.5-4.3-21.7-9.2
		c-5.5-4.5-11.6-8.3-16.1-13.9c-10.1-14.2-13.6-33-8.8-49.8c2.9-7.9,7.1-15.2,11.2-22.5C305.1,88.9,312.6,85.9,319.5,83.7z"/>
	<path class="st0" d="M213.1,95.7c4.7-3.9,9.2-8.3,14.8-10.8c3.5-1.1,6.8,1.2,9.2,3.5c5.5,5.5,7.3,13.3,9.7,20.4
		c7.2,23.1,15.8,46.6,32.3,64.8c9.2,11.9,23.6,17.4,36.9,23.2c11.2,5.1,24,5.7,36,4c13.4-2.4,26.9-4.8,40.6-5.7
		c-8.9,7.3-20,10.9-29.6,17c-8.9,5.7-17.9,11.3-25.9,18.2c-11,9.7-25.4,15.2-39.9,16.6c-7.3,0.7-14.1-2.7-20.6-5.5
		c-5-2.3-10.2-4-15.4-5.9c-8.1-2.8-14.3-9.1-20.2-15.1c-15.9-16.7-25.8-37.9-34.8-58.8c-3.6-9.2-3.9-19.1-5.3-28.8
		c-1.1-7.8-1.3-16,0.9-23.6C203.7,103.4,208.7,99.6,213.1,95.7z"/>
	<path class="st0" d="M354.1,104.2c4.2-9,12.5-16.5,22.5-18c1.2,7.7,1.4,16,6.2,22.5c7.6,10.2,17.1,19.8,29.5,23.6
		c7.3,2.2,14.2,5.5,20.7,9.5c-5.4,3.6-10.7,7.7-17,9.8c-2.9,0.1-5.5-1.5-8.3-2.3c-5.9-2.7-12.2,1.3-18.3,0.3
		c-8.4-1.2-16.7-3.6-24.2-7.5c-5.8-2.9-10.6-8-12.1-14.5C351.3,120.1,351.5,111.7,354.1,104.2z"/>
	<path class="st0" d="M392.7,91.6c5.7-1.9,11.6-4.4,17.7-3.1c6.1,1.2,12,3.2,18,4.8c6.8,1.9,14,4.1,19,9.4c3.6,3.8,2.4,9.6,0.8,14
		c-1.9,4.9-3.7,10.2-8.1,13.4c-2.3,1.6-5.1,0.3-7.3-0.6c-7.1-3.4-13.7-7.8-20.5-11.9c2-5.8,3.3-11.9,3.9-18
		C407.9,98.5,398.5,98.5,392.7,91.6z"/>
	<path class="st0" d="M141.3,108.7c6.9-7.9,17.2-12.6,27.6-13c4.3,1.9,8.2,6.1,7.9,11c-0.2,7.9-2,15.8-1.2,23.7
		c1.4,14.4,3.9,28.6,6.5,42.8c1.6,8.7,1.3,18.1,6.1,25.9c5.3,8.7,11.5,16.9,16.9,25.6c4.5,7.1,10.3,13.1,16.5,18.8
		c5.6,5,10.1,12,17.7,14.2c9.8,3,18.9,8.3,29.2,9.4c8.3,0.9,16.5,2.8,24.8,3.4c9.6,1.2,17.9-5.6,27.4-4.5
		c-9.2,6.3-18.8,12.1-27,19.7c-10.3,7.9-18.1,18.5-28.1,26.7c-5.8,4.8-10.6,10.7-15.3,16.5c-7.3,9.2-17.1,15.8-25.9,23.6
		c-11.4,9.3-21.9,19.7-34.5,27.4c-12.7,8.1-25.1,16.9-39.2,22.5c-6.2,2.4-12.4,5-18.2,8.4c-5,2.6-10,6.3-15.9,6.2
		c-12.3,0.2-24.5-4.1-34.3-11.3c-5.4-4-9.5-9.4-13.8-14.5c-4.3-5.1-9.1-10.1-11.7-16.4c-2.6-6.2-4.5-12.7-5.7-19.3
		c-1.7-8.9,0.5-17.9,1-26.8c1.5-13.4,1.5-27,4.2-40.2c2.5-15.7,10.7-29.8,13-45.5c2.8-17.3,11.8-32.7,18.1-48.8
		c5.3-13.6,13.1-26,19-39.4C114.1,136.9,128.3,123,141.3,108.7z"/>
</g>
</svg>
